Chapter 3 The Key Aspects of Data | Better Data and Better Results
…
3.3 Coverage

Coverage can be thought of as how much information the data can give you. The amount of data that a dataset includes is affected by several factors, including the feasibility of data collection and relevance.

3.3.1 Using Technology to Cover More Data

In our case, modern technology could have been used to collect much more data, and the collected data could cover a lot of other variables such as the road features(bridge, junction, intersection, etc.), weather conditions (foggy, rainy, etc.), and much more. For example, Dubai Police receives traffic incidents via their mobile app. Meaning that the whole data collection process can be automated, including automatically obtaining the weather conditions on that day through the AccuWeather API, and the road features on the provided coordinates, which could be done through OpenStreetMap for example.

In this dataset, we could’ve added more coverage by covering the severity of the incidents. We were able to do that by splitting the acci_type into two columns: Incident_type and severity.

workfile <- workfile %>% separate(acci_name, c("Incident_type", "severity"), sep = "- |-")
workfile

## # A tibble: 23,821 x 6
##       acci_id acci_time           Incident_type           severity acci_x acci_y
##         <dbl> <dttm>              <chr>                   <chr>     <dbl>  <dbl>
##  1 3545008155 2019-06-10 11:59:50 حادث دهس امراة          بليغ       25.3   55.4
##  2 3545009716 2019-06-10 12:04:19 حادث صدم رصيف           بسيط       25.3   55.3
##  3 3545011689 2019-06-10 12:09:48 حادث صدم جدار           بسيط       25.2   55.4
##  4 3545013868 2019-06-10 12:18:18 حادث ضد مجهول           بسيط       25.3   55.3
##  5 3544995157 2019-06-10 11:22:00 حادث اصطدام بين سيارتين بسيط       25.3   55.3
##  6 3545003866 2019-06-10 11:47:55 حادث صدم جدار           بسيط       25.1   55.4
##  7 3544986692 2019-06-10 10:53:35 حادث اصطدام بين سيارتين بسيط       25.2   55.5
##  8 3544991407 2019-06-10 11:11:04 حادث صدم رصيف           بسيط       25.1   55.4
##  9 3544994531 2019-06-10 11:19:49 حادث ضد مجهول           بسيط       25.2   55.3
## 10 3544998937 2019-06-10 11:33:00 حادث صدم دراجة          بسيط       25.1   55.2
## # ... with 23,811 more rows
…
